{
  "type": "service_account",
  "project_id": "fast-fire-205816",
  "private_key_id": "4c85323fc38e950593f386e6bf7663147f075f3b",
  "private_key": "-----BEGIN PRIVATE KEY-----\nMIIEvgIBADANBgkqhkiG9w0BAQEFAASCBKgwggSkAgEAAoIBAQC4eNNLCNW1aRLv\nbI8Q5RuORBTATOHj9pkl77M3jJJEqDM/zYzavRggZEQf7VUmMhnBAbfoxTodFMc7\nzog7x8I8Sxwp1gzb+EO7jDqhOm7l6raPxQF00GO3guIEhfHTC5C2sFScJOTbdBaQ\nr5VelzG6CLM+aZ1iAmekiUpKXXuSMyYKkMiIjxZajvGfxsXA5lUDoRvPCsADrMPd\nJW4dugwg1tJ+1ioFwR5bPn5S+yInt3z1QVcTN9RJ9I1A3G7XqdB6GO7KjFHsH7WH\nqGTX84YvX38RWcB8TrgA6iOWRNButVOI3N648RHTRbbUUijc/ppKJBu2u10Pyv13\nTAxjRODvAgMBAAECggEABO6UtkKwCq/FUKm7hiKcotLsJnCycLiqQzWOOj55DKUz\nQDybzEoA8qDA94TjYWg2gGQDiZF4VR217pc+KjGpiO4jJx/ba9LOkMhA1bMCaFrm\n8vS77hEXkWj056pjGuw0vBr+cBxGaB2e8ChZmylPVt9zrLKrLAXPb+U3G2zgvbmy\nYX0vBUy+d4GSZzN0Q3PVAWCBsiF60Pspg+AaEIZLRWiK2Ag6okTOAOo+kj6jI8ww\nI9Rkm9yzmuYaO2fKc7+iteSFZzkMOftZueZWU968ilEjk/1PqkWRR/Dw2VlzT9Ry\nxh1kIObN87q4zBnYypjPnBaxXHCgaIJr/JwlHJUoYQKBgQDnD9GvfM41SO0cyP4A\nSbcp9lyx1waR1UZWSiwp9DnJ1V8ar78mGNr8Q6VE9AORkBuIGUYUnshWD0GJnWwb\na7z90yeDRTKU8dsXmrkTt0zErpH/tDz8lH6R4OjftXlt1R252hBlCp9XrtEQecoi\np17jN96C1fe8qS2HTQ3eJRSL4QKBgQDMYb2vH1ExGQd152/Md8dwnapu5FbuoaGZ\n3Nx+DMNsicjE8o7xcYW8vIO/qtBNyHtomJkWDOY1QnYRwsAk7h2zbiXBXtvszFsD\newMz4FTgkSPo1SdV0+ipl/9lfQ772Oo7Vqxk5CstRJ88SHdiT/sZDKCBjgvZUCoD\n1VY09HCGzwKBgQCM0ZpEbjaqSNChW2lZuZNUkp25kMejNyzPyBKUWxChDlYQyI0h\nZcKIPZ3KoUBPhVkSH/0S8hY8RL33ZaaOK6IZu4d4PELwfVm+UAB9oJe7wnyeLzV/\n5ewhccXbGRlxM5ITQ2/8dHXaFWO6u87SQdjVd6Y3bLm4FA74R6CtA0I7YQKBgAzR\nPGIVJrRbi3o7b2l1QY6wdJXLwB/rBwVtMm69Qiw2X97qD0jZA7gYYnLMtY+LOSIQ\nH9mgKXfBmUH34rDuNfKgv8Fmv4gUMMkBF+xS7z++GnBpnbPmPDsWiy/ELgJhUh8y\nilExdfu6x/mx2brSpT6m6hH15IxWWKww3t0nTz9FAoGBANWtgoD4IQeqOlnVCSWk\nUV/gAl99IcU1C1/ULk/eaCtVnh4zqnB69oMhgEMrO/PwETOY4XuBtrapVcGQPYtz\nmC2TAbmeOXLKDC3a2+Ob/oKa+ZW6TeQe+iIU/07T59PrHZGgOSa9boDnBAMxoQiZ\n0xkOztC8e3Im3KcefVEB6AaT\n-----END PRIVATE KEY-----\n",
  "client_email": "login-google@fast-fire-205816.iam.gserviceaccount.com",
  "client_id": "113447226271632443018",
  "auth_uri": "https://accounts.google.com/o/oauth2/auth",
  "token_uri": "https://accounts.google.com/o/oauth2/token",
  "auth_provider_x509_cert_url": "https://www.googleapis.com/oauth2/v1/certs",
  "client_x509_cert_url": "https://www.googleapis.com/robot/v1/metadata/x509/login-google%40fast-fire-205816.iam.gserviceaccount.com"
}
